{
  "F15": [
    "AttackAbility",
    "IntelligenceAbility"
  ],
  "F16": [
    "AttackAbility",
    "EnsureAttack"
  ],
  "Kochav": [
    "AttackAbility",
    "IntelligenceAbility",
    "EnsureAttack"
  ],
  "Shoval": [
    "AttackAbility",
    "IntelligenceAbility",
    "EnsureAttack"
  ],
  "Zik": [
    "IntelligenceAbility",
    "EnsureAttack"
  ],
  "Eitan": [
    "AttackAbility",
    "IntelligenceAbility"
  ]
}